%YAML 1.1
%TAG !u! tag:unity3d.com,2011:
--- !u!74 &7400000
AnimationClip:
  m_ObjectHideFlags: 0
  m_PrefabParentObject: {fileID: 0}
  m_PrefabInternal: {fileID: 0}
  m_Name: TimHitNew
  serializedVersion: 6
  m_Legacy: 0
  m_Compressed: 0
  m_UseHighQualityCurve: 1
  m_RotationCurves: []
  m_CompressedRotationCurves: []
  m_EulerCurves: []
  m_PositionCurves: []
  m_ScaleCurves: []
  m_FloatCurves: []
  m_PPtrCurves:
  - curve:
    - time: 0
      value: {fileID: 21300066, guid: b306156e94d294244890711114cc70a3, type: 3}
    - time: 0.16666667
      value: {fileID: 21300068, guid: b306156e94d294244890711114cc70a3, type: 3}
    - time: 0.33333334
      value: {fileID: 21300070, guid: b306156e94d294244890711114cc70a3, type: 3}
    - time: 0.5
      value: {fileID: 21300072, guid: b306156e94d294244890711114cc70a3, type: 3}
    - time: 0.6666667
      value: {fileID: 21300074, guid: b306156e94d294244890711114cc70a3, type: 3}
    - time: 0.8333333
      value: {fileID: 21300076, guid: b306156e94d294244890711114cc70a3, type: 3}
    - time: 1
      value: {fileID: 21300078, guid: b306156e94d294244890711114cc70a3, type: 3}
    - time: 1.1666666
      value: {fileID: 21300080, guid: b306156e94d294244890711114cc70a3, type: 3}
    attribute: m_Sprite
    path: 
    classID: 212
    script: {fileID: 0}
  m_SampleRate: 6
  m_WrapMode: 1
  m_Bounds:
    m_Center: {x: 0, y: 0, z: 0}
    m_Extent: {x: 0, y: 0, z: 0}
  m_ClipBindingConstant:
    genericBindings:
    - path: 0
      attribute: 0
      script: {fileID: 0}
      classID: 212
      customType: 23
      isPPtrCurve: 1
    pptrCurveMapping:
    - {fileID: 21300066, guid: b306156e94d294244890711114cc70a3, type: 3}
    - {fileID: 21300068, guid: b306156e94d294244890711114cc70a3, type: 3}
    - {fileID: 21300070, guid: b306156e94d294244890711114cc70a3, type: 3}
    - {fileID: 21300072, guid: b306156e94d294244890711114cc70a3, type: 3}
    - {fileID: 21300074, guid: b306156e94d294244890711114cc70a3, type: 3}
    - {fileID: 21300076, guid: b306156e94d294244890711114cc70a3, type: 3}
    - {fileID: 21300078, guid: b306156e94d294244890711114cc70a3, type: 3}
    - {fileID: 21300080, guid: b306156e94d294244890711114cc70a3, type: 3}
  m_AnimationClipSettings:
    serializedVersion: 2
    m_AdditiveReferencePoseClip: {fileID: 0}
    m_AdditiveReferencePoseTime: 0
    m_StartTime: 0
    m_StopTime: 1.3333333
    m_OrientationOffsetY: 0
    m_Level: 0
    m_CycleOffset: 0
    m_HasAdditiveReferencePose: 0
    m_LoopTime: 0
    m_LoopBlend: 0
    m_LoopBlendOrientation: 0
    m_LoopBlendPositionY: 0
    m_LoopBlendPositionXZ: 0
    m_KeepOriginalOrientation: 0
    m_KeepOriginalPositionY: 1
    m_KeepOriginalPositionXZ: 0
    m_HeightFromFeet: 0
    m_Mirror: 0
  m_EditorCurves: []
  m_EulerEditorCurves: []
  m_HasGenericRootTransform: 0
  m_HasMotionFloatCurves: 0
  m_GenerateMotionCurves: 0
  m_Events: []
